<svg width="1em" height="1em" viewBox="0 0 20 18" fill="none" xmlns="http://www.w3.org/2000/svg">
<path d="M18.9008 15.6493L15.5 12.6976C16.8201 11.2574 17.4594 9.42935 17.2864 7.58937C17.1134 5.7494 16.1413 4.03733 14.57 2.80522C12.9987 1.57311 10.9476 0.914607 8.83849 0.965106C6.72934 1.01561 4.72247 1.77127 3.23052 3.07673C1.73857 4.38218 0.874952 6.1382 0.817238 7.9837C0.759524 9.8292 1.5121 11.6239 2.92023 12.9988C4.32836 14.3737 6.285 15.2243 8.38783 15.3756C10.4907 15.527 12.5799 14.9676 14.2258 13.8125L17.5991 16.7642C17.6844 16.8393 17.7857 16.899 17.8974 16.9397C18.0092 16.9805 18.129 17.0014 18.25 17.0014C18.371 17.0014 18.4908 16.9805 18.6025 16.9397C18.7142 16.899 18.8156 16.8393 18.9008 16.7642C19.066 16.6146 19.1584 16.4147 19.1584 16.2067C19.1584 15.9987 19.066 15.7988 18.9008 15.6493ZM9.08331 13.8125C7.81421 13.8125 6.57361 13.4832 5.5184 12.8663C4.46318 12.2493 3.64074 11.3725 3.15508 10.3465C2.66942 9.32059 2.54235 8.19169 2.78993 7.10256C3.03752 6.01344 3.64865 5.01302 4.54604 4.22781C5.44343 3.44259 6.58677 2.90785 7.83148 2.69122C9.07619 2.47458 10.3664 2.58576 11.5389 3.01072C12.7114 3.43567 13.7135 4.15531 14.4186 5.07862C15.1236 6.00193 15.5 7.08746 15.5 8.19791C15.5 9.68699 14.8239 11.1151 13.6206 12.168C12.4172 13.221 10.7851 13.8125 9.08331 13.8125Z" fill="currentColor"/>
</svg>
