<svg width="16" height="16" viewBox="0 0 16 16" fill="none" xmlns="http://www.w3.org/2000/svg">
    <g clip-path="url(#clip0_853_11520)">
        <path d="M1.06124 0.168752C0.887874 0.225002 0.684613 0.381252 0.574015 0.537502C0.376733 0.815627 0.391678 0.275002 0.397657 8.125L0.406624 15.2656L0.481352 15.4219C0.574015 15.6219 0.753363 15.8094 0.944668 15.9063L1.09412 15.9844H8.04385H14.9936L15.143 15.9063C15.3343 15.8094 15.5137 15.6219 15.6064 15.4219L15.6811 15.2656V11.6094V7.95313L15.6093 7.7875C15.5197 7.57813 15.2686 7.33438 15.0773 7.26875C14.9966 7.24375 13.7023 6.96563 12.1987 6.65625C10.6952 6.34375 9.4338 6.08125 9.39793 6.07188L9.33217 6.05625L9.3232 4.03438L9.31423 2.01563L9.21559 1.80625C9.0213 1.39375 8.83298 1.29375 7.98407 1.15938C7.6463 1.10625 6.04113 0.853127 4.41804 0.593752C2.79494 0.337502 1.402 0.125002 1.32429 0.128127C1.24657 0.128127 1.12999 0.146877 1.06124 0.168752ZM4.90228 1.34375C6.86613 1.65625 8.49521 1.92188 8.5251 1.94063C8.55499 1.95625 8.59983 2 8.62374 2.0375C8.66559 2.1 8.67157 2.79688 8.67157 8.725V15.3438H7.71505H6.75853V13.7531C6.75853 11.8813 6.76749 11.9438 6.47456 11.6406C6.1876 11.3406 6.20255 11.3438 4.85445 11.3438C3.7963 11.3438 3.69766 11.3469 3.56016 11.4031C3.327 11.4969 3.15961 11.6563 3.04603 11.9L2.94738 12.1094L2.93842 13.725L2.92945 15.3438H2.12238C1.21668 15.3438 1.15391 15.3313 1.06722 15.1406C1.02537 15.0469 1.0194 14.35 1.0194 8.06875C1.0194 2.96875 1.02836 1.075 1.05228 1.00313C1.08516 0.909377 1.22863 0.781252 1.30336 0.781252C1.31831 0.781252 2.93842 1.03438 4.90228 1.34375ZM12.1061 7.31563C13.6126 7.625 14.877 7.9 14.9129 7.925C15.0743 8.03438 15.0683 7.91563 15.0683 11.6125C15.0683 15.4094 15.0803 15.1938 14.874 15.2938C14.7873 15.3375 14.4705 15.3438 12.0523 15.3438H9.32918V11.0469C9.32918 8.68438 9.33815 6.75 9.34711 6.75C9.35907 6.75 10.5996 7.00313 12.1061 7.31563ZM6.03217 12.1031L6.11586 12.1875L6.12483 13.7656L6.1338 15.3438H4.86043H3.59005V13.7969C3.59005 12.7625 3.602 12.2281 3.62293 12.1781C3.64086 12.1375 3.69168 12.0813 3.73353 12.0531C3.80527 12.0063 3.92483 12 4.88135 12.0094L5.95146 12.0156L6.03217 12.1031Z" fill="#007575" stroke="#007575" stroke-width="0.3"/>
        <path d="M2.45105 3.39062C2.28365 3.48437 2.26572 3.7625 2.41219 3.90937L2.48991 3.98438H3.2611H4.0323L4.11002 3.90937C4.25947 3.7625 4.23556 3.48125 4.06518 3.39062C3.94561 3.325 2.56463 3.325 2.45105 3.39062Z" fill="#007575"/>
        <path d="M5.58964 3.43437C5.44915 3.58437 5.47904 3.84062 5.65241 3.94687C5.72415 3.99375 5.83773 4 6.44453 4C7.23963 4 7.29643 3.9875 7.37414 3.79062C7.43094 3.65625 7.38909 3.5 7.2755 3.40625C7.20376 3.34687 7.15594 3.34375 6.43855 3.34375H5.67632L5.58964 3.43437Z" fill="#007575"/>
        <path d="M2.45105 5.39062C2.28365 5.48437 2.26572 5.7625 2.41219 5.90937L2.48991 5.98438H3.2611H4.0323L4.11002 5.90937C4.25947 5.7625 4.23556 5.48125 4.06518 5.39062C3.94561 5.325 2.56463 5.325 2.45105 5.39062Z" fill="#007575"/>
        <path d="M5.58964 5.43437C5.44915 5.58437 5.47904 5.84062 5.65241 5.94687C5.72415 5.99375 5.83773 6 6.44453 6C7.23963 6 7.29643 5.9875 7.37414 5.79062C7.43094 5.65625 7.38909 5.5 7.2755 5.40625C7.20376 5.34687 7.15594 5.34375 6.43855 5.34375H5.67632L5.58964 5.43437Z" fill="#007575"/>
        <path d="M2.45105 7.39062C2.28365 7.48437 2.26572 7.7625 2.41219 7.90937L2.48991 7.98438H3.2611H4.0323L4.11002 7.90937C4.25947 7.7625 4.23556 7.48125 4.06518 7.39062C3.94561 7.325 2.56463 7.325 2.45105 7.39062Z" fill="#007575"/>
        <path d="M5.58964 7.43437C5.44915 7.58437 5.47904 7.84062 5.65241 7.94687C5.72415 7.99375 5.83773 8 6.44453 8C7.23963 8 7.29643 7.9875 7.37414 7.79062C7.43094 7.65625 7.38909 7.5 7.2755 7.40625C7.20376 7.34687 7.15594 7.34375 6.43855 7.34375H5.67632L5.58964 7.43437Z" fill="#007575"/>
        <path d="M2.45105 9.39063C2.28365 9.48438 2.26572 9.7625 2.41219 9.90938L2.48991 9.98438H3.2611H4.0323L4.11002 9.90938C4.25947 9.7625 4.23556 9.48125 4.06518 9.39063C3.94561 9.325 2.56463 9.325 2.45105 9.39063Z" fill="#007575"/>
        <path d="M5.58964 9.43437C5.44915 9.58437 5.47904 9.84062 5.65241 9.94687C5.72415 9.99375 5.83773 10 6.44453 10C7.23963 10 7.29643 9.9875 7.37414 9.79062C7.43094 9.65625 7.38909 9.5 7.2755 9.40625C7.20376 9.34687 7.15594 9.34375 6.43855 9.34375H5.67632L5.58964 9.43437Z" fill="#007575"/>
        <path d="M11.3288 9.43437C11.1883 9.58437 11.2182 9.84062 11.3915 9.94687C11.4633 9.99375 11.5769 10 12.1837 10C12.9788 10 13.0356 9.9875 13.1133 9.79062C13.1701 9.65625 13.1282 9.5 13.0146 9.40625C12.9429 9.34687 12.8951 9.34375 12.1777 9.34375H11.4154L11.3288 9.43437Z" fill="#007575"/>
        <path d="M11.3288 11.4344C11.1883 11.5844 11.2182 11.8406 11.3915 11.9469C11.4633 11.9937 11.5769 12 12.1837 12C12.9788 12 13.0356 11.9875 13.1133 11.7906C13.1701 11.6562 13.1282 11.5 13.0146 11.4062C12.9429 11.3469 12.8951 11.3437 12.1777 11.3437H11.4154L11.3288 11.4344Z" fill="#007575"/>
        <path d="M11.3288 13.4344C11.1883 13.5844 11.2182 13.8406 11.3915 13.9469C11.4633 13.9937 11.5769 14 12.1837 14C12.9788 14 13.0356 13.9875 13.1133 13.7906C13.1701 13.6562 13.1282 13.5 13.0146 13.4062C12.9429 13.3469 12.8951 13.3437 12.1777 13.3437H11.4154L11.3288 13.4344Z" fill="#007575"/>
    </g>
    <defs>
        <clipPath id="clip0_853_11520">
            <rect width="15.3043" height="16" fill="white" transform="translate(0.391541)"/>
        </clipPath>
    </defs>
</svg>